<?xml version="1.0" encoding="UTF-8" standalone="no"?>
<svg
   xmlns:dc="http://purl.org/dc/elements/1.1/"
   xmlns:cc="http://creativecommons.org/ns#"
   xmlns:rdf="http://www.w3.org/1999/02/22-rdf-syntax-ns#"
   xmlns:svg="http://www.w3.org/2000/svg"
   xmlns="http://www.w3.org/2000/svg"
   version="1.1"
   id="svg2"
   viewBox="0 0 61.999997 34"
   height="34"
   width="62">
  <defs
     id="defs4" />
  <metadata
     id="metadata7">
    <rdf:RDF>
      <cc:Work
         rdf:about="">
        <dc:format>image/svg+xml</dc:format>
        <dc:type
           rdf:resource="http://purl.org/dc/dcmitype/StillImage" />
        <dc:title></dc:title>
      </cc:Work>
    </rdf:RDF>
  </metadata>
  <g
     transform="translate(0,-1018.3622)"
     id="layer1">
    <g
       transform="matrix(0.19152737,0,0,0.19152737,2.5279205,862.94907)"
       id="g4198">
      <g
         id="g4190">
        <path
           style="opacity:1;fill:none;fill-opacity:1;stroke:#ffffff;stroke-width:36;stroke-linecap:round;stroke-linejoin:miter;stroke-miterlimit:4;stroke-dasharray:none"
           d="M 167.73481,900.20099 A 70.760162,70.760162 0 0 1 96.974648,970.96115 70.760162,70.760162 0 0 1 26.214485,900.20099 70.760162,70.760162 0 0 1 96.974648,829.44083 70.760162,70.760162 0 0 1 167.73481,900.20099 Z"
           id="path4174" />
        <path
           style="opacity:1;fill:none;fill-opacity:1;stroke:#ffffff;stroke-width:18;stroke-linecap:round;stroke-linejoin:miter;stroke-miterlimit:4;stroke-dasharray:none"
           d="M 120.18893,900.20099 A 23.214285,23.214285 0 0 1 96.974648,923.41527 23.214285,23.214285 0 0 1 73.760363,900.20099 23.214285,23.214285 0 0 1 96.974648,876.9867 23.214285,23.214285 0 0 1 120.18893,900.20099 Z"
           id="path4178" />
      </g>
      <g
         id="g4182"
         transform="translate(-2.301304,-24.51856)">
        <path
           style="opacity:1;fill:none;fill-opacity:1;stroke:#ffffff;stroke-width:35.54733658;stroke-linecap:round;stroke-linejoin:miter;stroke-miterlimit:4;stroke-dasharray:none"
           d="m 273.62917,905.95941 a 52.226334,52.226334 0 0 1 -52.22634,52.22634 52.226334,52.226334 0 0 1 -52.22633,-52.22634 52.226334,52.226334 0 0 1 52.22633,-52.22633 52.226334,52.226334 0 0 1 52.22634,52.22633 z"
           id="circle4176" />
        <path
           style="opacity:1;fill:#ffffff;fill-opacity:1;stroke:#ffffff;stroke-width:17.05263138;stroke-linecap:round;stroke-linejoin:miter;stroke-miterlimit:4;stroke-dasharray:none"
           d="m 230.87652,905.95941 a 9.4736843,9.4736843 0 0 1 -9.47369,9.47369 9.4736843,9.4736843 0 0 1 -9.47368,-9.47369 9.4736843,9.4736843 0 0 1 9.47368,-9.47368 9.4736843,9.4736843 0 0 1 9.47369,9.47368 z"
           id="path4180" />
      </g>
    </g>
  </g>
</svg>
